0
SECTION
2
HEADER
9
$INSUNITS
70
4
9
$ACADVER
1
AC1014
9
$HANDSEED
5
FFFF
0
ENDSEC
0
SECTION
2
TABLES
0
TABLE
2
VPORT
5
8
100
AcDbSymbolTable
0
ENDTAB
0
TABLE
2
LTYPE
5
5
100
AcDbSymbolTable
0
LTYPE
5
14
100
AcDbSymbolTableRecord
100
AcDbLinetypeTableRecord
2
BYBLOCK
70
0
0
LTYPE
5
15
100
AcDbSymbolTableRecord
100
AcDbLinetypeTableRecord
2
BYLAYER
70
0
0
ENDTAB
0
TABLE
2
LAYER
5
2
100
AcDbSymbolTable
70
2
0
LAYER
5
50
100
AcDbSymbolTableRecord
100
AcDbLayerTableRecord
2
0
70
0
6
CONTINUOUS
0
ENDTAB
0
TABLE
2
STYLE
5
3
100
AcDbSymbolTable
70
1
0
STYLE
5
11
100
AcDbSymbolTableRecord
100
AcDbTextStyleTableRecord
2
STANDARD
70
0
0
ENDTAB
0
TABLE
2
VIEW
5
6
100
AcDbSymbolTable
70
0
0
ENDTAB
0
TABLE
2
UCS
5
7
100
AcDbSymbolTable
70
0
0
ENDTAB
0
TABLE
2
APPID
5
9
100
AcDbSymbolTable
70
2
0
APPID
5
12
100
AcDbSymbolTableRecord
100
AcDbRegAppTableRecord
2
ACAD
70
0
0
ENDTAB
0
TABLE
2
DIMSTYLE
5
A
100
AcDbSymbolTable
70
1
0
ENDTAB
0
TABLE
2
BLOCK_RECORD
5
1
100
AcDbSymbolTable
70
1
0
BLOCK_RECORD
5
1F
100
AcDbSymbolTableRecord
100
AcDbBlockTableRecord
2
*MODEL_SPACE
0
BLOCK_RECORD
5
1B
100
AcDbSymbolTableRecord
100
AcDbBlockTableRecord
2
*PAPER_SPACE
0
ENDTAB
0
ENDSEC
0
SECTION
2
BLOCKS
0
BLOCK
5
20
100
AcDbEntity
100
AcDbBlockBegin
2
*MODEL_SPACE
0
ENDBLK
5
21
100
AcDbEntity
100
AcDbBlockEnd
0
BLOCK
5
1C
100
AcDbEntity
100
AcDbBlockBegin
2
*PAPER_SPACE
0
ENDBLK
5
1D
100
AcDbEntity
100
AcDbBlockEnd
0
ENDSEC
0
SECTION
2
ENTITIES
0
LINE
5
100
100
AcDbEntity
8
0
100
AcDbLine
10
21.418999710514186
20
-35.580154744866064
30
0
11
21.418999710513145
21
-38.501068225329739
31
0
0
LINE
5
101
100
AcDbEntity
8
0
100
AcDbLine
10
23.029509676330598
20
-38.501068225329739
30
0
11
23.029509676332012
21
-35.580154744866057
31
0
0
LINE
5
102
100
AcDbEntity
8
0
100
AcDbLine
10
23.029509676332012
20
-35.580154744866057
30
0
11
21.418999710514186
21
-35.580154744866064
31
0
0
LINE
5
103
100
AcDbEntity
8
0
100
AcDbLine
10
-15.599999651312828
20
-38.5013591095652
30
0
11
-15.599999651312828
21
-35.5013591095652
31
0
0
LINE
5
104
100
AcDbEntity
8
0
100
AcDbLine
10
-14.032562514897755
20
-38.5013591095652
30
0
11
-14.032562514897755
21
-35.5013591095652
31
0
0
LINE
5
105
100
AcDbEntity
8
0
100
AcDbLine
10
-14.032562514897755
20
-35.5013591095652
30
0
11
-15.599999651312828
21
-35.5013591095652
31
0
0
LWPOLYLINE
5
106
100
AcDbEntity
8
0
100
AcDbPolyline
90
8
70
1
43
0.0
10
25.300984328757327
20
-25.648626036768785
10
0.00084879619857314292
20
-25.64862603740734
10
-2.0000000716616886
20
-25.648626030421781
10
-2.0000000402671563
20
-16.648625896316506
10
0.00084882758726756435
20
-16.648625903296029
10
25.300984328530191
20
-16.648625902657464
10
27.000000391944102
20
-16.648625996777756
10
27.00000036078249
20
-25.648626130889106
0
LINE
5
107
100
AcDbEntity
8
0
100
AcDbLine
10
-15.23795982008787
20
33.248933244347405
30
0
11
-15.237959678962625
21
39.998931774670105
31
0
0
LINE
5
108
100
AcDbEntity
8
0
100
AcDbLine
10
43.762040321037396
20
39.998931774670169
30
0
11
43.762040321037396
21
33.24893180398125
31
0
0
LINE
5
109
100
AcDbEntity
8
0
100
AcDbLine
10
-15.23795982008787
20
33.248933244347405
30
0
11
43.762040321037396
21
33.24893180398125
31
0
0
LINE
5
110
100
AcDbEntity
8
0
100
AcDbLine
10
45.262040321037404
20
39.998931774670169
30
0
11
45.262040321037411
21
31.748931767361739
31
0
0
LINE
5
111
100
AcDbEntity
8
0
100
AcDbLine
10
-16.737959851449034
20
31.748933497199964
30
0
11
45.262040321037411
21
31.748931767361739
31
0
0
LINE
5
112
100
AcDbEntity
8
0
100
AcDbLine
10
-16.737959851449034
20
31.748933497199964
30
0
11
-16.737959678962625
21
39.99893180603128
31
0
0
LINE
5
113
100
AcDbEntity
8
0
100
AcDbLine
10
-15.23795982008787
20
33.248933244347405
30
0
11
-16.737959820087866
21
33.248933244347405
31
0
0
LINE
5
114
100
AcDbEntity
8
0
100
AcDbLine
10
43.762040321037396
20
33.24893180398125
30
0
11
45.262040321037411
21
33.248931767375971
31
0
0
LINE
5
115
100
AcDbEntity
8
0
100
AcDbLine
10
50.000095957711316
20
-40.001068225329838
30
0
11
-49.999904042288669
21
-40.001068225329817
31
0
0
SPLINE
5
116
100
AcDbEntity
8
0
100
AcDbSpline
70
4
71
5
72
26
73
20
74
0
42
0.000000001
43
0.0000000001
44
0.0000000001
40
0
40
0
40
0
40
0
40
0
40
0
40
0.066666666666666666
40
0.13333333333333333
40
0.20000000000000001
40
0.26666666666666666
40
0.33333333333333331
40
0.39999999999999997
40
0.46666666666666662
40
0.53333333333333333
40
0.59999999999999998
40
0.66666666666666663
40
0.73333333333333328
40
0.79999999999999993
40
0.86666666666666659
40
0.93333333333333324
40
1
40
1
40
1
40
1
40
1
40
1
41
1
41
1
41
1
41
1
41
1
41
1
41
1
41
1
41
1
41
1
41
1
41
1
41
1
41
1
41
1
41
1
41
1
41
1
41
1
41
1
10
50.000095957711331
20
-40.001068225329803
30
0
10
50.325489466744486
20
-40.006071186860581
30
0
10
50.974219314719662
20
-40.010056725926908
30
0
10
51.941142537430338
20
-39.997974170052558
30
0
10
53.217941055559244
20
-39.945477301524825
30
0
10
54.79218019291671
20
-39.817694114414486
30
0
10
56.342491333210234
20
-39.625931849132598
30
0
10
57.865253043179486
20
-39.368861062458876
30
0
10
59.355177731326371
20
-39.046410529701546
30
0
10
60.804937148561102
20
-38.661173717308515
30
0
10
62.205530892639096
20
-38.218381769899914
30
0
10
63.547353270935865
20
-37.724479897567051
30
0
10
64.821278392753698
20
-37.186292539704652
30
0
10
66.019758108553404
20
-36.610189966816066
30
0
10
67.138617709429951
20
-36.001317515101476
30
0
10
68.177337047610791
20
-35.363246471218631
30
0
10
68.945088259959974
20
-34.83124528723765
30
0
10
69.486049108830926
20
-34.420637541858525
30
0
10
69.83131020518465
20
-34.141778163935221
30
0
10
70.000095957711338
20
-34.001068225329817
30
0
0
LINE
5
117
100
AcDbEntity
8
0
100
AcDbLine
10
70.000095957711309
20
-34.001068225329838
30
0
11
70.000095957711267
21
33.998931774670169
31
0
0
SPLINE
5
118
100
AcDbEntity
8
0
100
AcDbSpline
70
4
71
5
72
26
73
20
74
0
42
0.000000001
43
0.0000000001
44
0.0000000001
40
0
40
0
40
0
40
0
40
0
40
0
40
0.066666666666666666
40
0.13333333333333333
40
0.20000000000000001
40
0.26666666666666666
40
0.33333333333333331
40
0.39999999999999997
40
0.46666666666666662
40
0.53333333333333333
40
0.59999999999999998
40
0.66666666666666663
40
0.73333333333333328
40
0.79999999999999993
40
0.86666666666666659
40
0.93333333333333324
40
1
40
1
40
1
40
1
40
1
40
1
41
1
41
1
41
1
41
1
41
1
41
1
41
1
41
1
41
1
41
1
41
1
41
1
41
1
41
1
41
1
41
1
41
1
41
1
41
1
41
1
10
50.000095957711281
20
39.998931774670176
30
0
10
50.325489466744415
20
40.003934736200947
30
0
10
50.974219314719484
20
40.007920275267125
30
0
10
51.941142537429982
20
39.995837719391496
30
0
10
53.2179410555582
20
39.943340850862739
30
0
10
54.792180192914842
20
39.815557663752287
30
0
10
56.3424913332084
20
39.623795398471444
30
0
10
57.865253043178669
20
39.366724611798929
30
0
10
59.355177731327061
20
39.044274079042374
30
0
10
60.804937148562857
20
38.659037266649484
30
0
10
62.205530892641285
20
38.21624531924067
30
0
10
63.547353270937485
20
37.722343446907331
30
0
10
64.821278392754252
20
37.184156089044905
30
0
10
66.019758108552821
20
36.608053516156446
30
0
10
67.138617709428999
20
35.999181064442247
30
0
10
68.177337047610081
20
35.361110020559586
30
0
10
68.945088259959689
20
34.829108836578371
30
0
10
69.486049108830812
20
34.418501091198948
30
0
10
69.831310205184593
20
34.139641713275594
30
0
10
70.000095957711281
20
33.998931774670183
30
0
0
LINE
5
119
100
AcDbEntity
8
0
100
AcDbLine
10
50.000095957711295
20
39.998931774670169
30
0
11
-49.999904042288705
21
39.99893177467014
31
0
0
SPLINE
5
120
100
AcDbEntity
8
0
100
AcDbSpline
70
4
71
5
72
26
73
20
74
0
42
0.000000001
43
0.0000000001
44
0.0000000001
40
0
40
0
40
0
40
0
40
0
40
0
40
0.066666666666666666
40
0.13333333333333333
40
0.20000000000000001
40
0.26666666666666666
40
0.33333333333333331
40
0.39999999999999997
40
0.46666666666666662
40
0.53333333333333333
40
0.59999999999999998
40
0.66666666666666663
40
0.73333333333333328
40
0.79999999999999993
40
0.86666666666666659
40
0.93333333333333324
40
1
40
1
40
1
40
1
40
1
40
1
41
1
41
1
41
1
41
1
41
1
41
1
41
1
41
1
41
1
41
1
41
1
41
1
41
1
41
1
41
1
41
1
41
1
41
1
41
1
41
1
10
-49.999904042288676
20
39.998931774670147
30
0
10
-50.325297551321817
20
40.003934736200918
30
0
10
-50.974027399296688
20
40.007920275267082
30
0
10
-51.940950622005545
20
39.99583771939146
30
0
10
-53.217749140133037
20
39.943340850862697
30
0
10
-54.791988277490574
20
39.815557663752223
30
0
10
-56.342299417785775
20
39.623795398471394
30
0
10
-57.865061127756583
20
39.366724611798894
30
0
10
-59.354985815904229
20
39.044274079042367
30
0
10
-60.804745233138604
20
38.659037266649506
30
0
10
-62.205338977215931
20
38.216245319240691
30
0
10
-63.54716135551211
20
37.722343446907345
30
0
10
-64.821086477330496
20
37.184156089044905
30
0
10
-66.019566193131055
20
36.608053516156417
30
0
10
-67.138425794008768
20
35.999181064442197
30
0
10
-68.177145132189963
20
35.361110020559529
30
0
10
-68.944896344538421
20
34.829108836578335
30
0
10
-69.485857193408535
20
34.41850109119892
30
0
10
-69.831118289762003
20
34.139641713275573
30
0
10
-69.999904042288676
20
33.998931774670169
30
0
0
LINE
5
121
100
AcDbEntity
8
0
100
AcDbLine
10
-69.999904042288662
20
-34.001068225329838
30
0
11
-69.999904042288691
21
33.998931774670169
31
0
0
SPLINE
5
122
100
AcDbEntity
8
0
100
AcDbSpline
70
4
71
5
72
26
73
20
74
0
42
0.000000001
43
0.0000000001
44
0.0000000001
40
0
40
0
40
0
40
0
40
0
40
0
40
0.066666666666666666
40
0.13333333333333333
40
0.20000000000000001
40
0.26666666666666666
40
0.33333333333333331
40
0.39999999999999997
40
0.46666666666666662
40
0.53333333333333333
40
0.59999999999999998
40
0.66666666666666663
40
0.73333333333333328
40
0.79999999999999993
40
0.86666666666666659
40
0.93333333333333324
40
1
40
1
40
1
40
1
40
1
40
1
41
1
41
1
41
1
41
1
41
1
41
1
41
1
41
1
41
1
41
1
41
1
41
1
41
1
41
1
41
1
41
1
41
1
41
1
41
1
41
1
10
-49.999904042288676
20
-40.001068225329817
30
0
10
-50.325297551321817
20
-40.006071186860595
30
0
10
-50.974027399296631
20
-40.010056725926908
30
0
10
-51.940950622005239
20
-39.997974170052501
30
0
10
-53.217749140132462
20
-39.945477301524662
30
0
10
-54.791988277489885
20
-39.817694114414088
30
0
10
-56.342299417785291
20
-39.625931849132094
30
0
10
-57.865061127756434
20
-39.368861062458684
30
0
10
-59.354985815904385
20
-39.046410529701781
30
0
10
-60.804745233138931
20
-38.661173717309026
30
0
10
-62.205338977216286
20
-38.218381769900475
30
0
10
-63.547161355512358
20
-37.724479897567427
30
0
10
-64.821086477330581
20
-37.186292539704766
30
0
10
-66.019566193130984
20
-36.610189966816044
30
0
10
-67.138425794008626
20
-36.001317515101398
30
0
10
-68.177145132189835
20
-35.363246471218588
30
0
10
-68.944896344538364
20
-34.831245287237607
30
0
10
-69.485857193408535
20
-34.420637541858554
30
0
10
-69.831118289761989
20
-34.14177816393525
30
0
10
-69.999904042288662
20
-34.001068225329838
30
0
0
SPLINE
5
123
100
AcDbEntity
8
0
100
AcDbSpline
70
0
71
3
72
17
73
13
74
0
42
0.000000001
43
0.0000000001
44
0.0000000001
40
-0.00047242448960156929
40
-0.00047242448960156929
40
-0.00047242448960156929
40
-0.00047242448960156929
40
0
40
0
40
0
40
0.44075339762259863
40
0.44075339762259863
40
0.44075339762259863
40
0.83243040653065881
40
0.83243040653065881
40
0.83243040653065881
40
0.95494365231723177
40
0.95494365231723177
40
0.95494365231723177
40
0.95494365231723177
10
-50.011434694622594
20
-38.50106822532986
30
0
10
-50.015277791183109
20
-38.501127313368542
30
0
10
-50.019120887744052
20
-38.501186401407239
30
0
10
-50.022963984305107
20
-38.501245489445942
30
0
10
-53.486785781269774
20
-38.554502136301544
30
0
10
-56.811404730166153
20
-38.17644120258214
30
0
10
-59.842999201139051
20
-37.355313413590629
30
0
10
-62.537035959602363
20
-36.625615405456685
30
0
10
-64.947979591988258
20
-35.573809478186917
30
0
10
-66.850110584208764
20
-34.408385199468832
30
0
10
-67.445081022779675
20
-34.043850371391287
30
0
10
-67.994640584331719
20
-33.666818773942389
30
0
10
-68.499904042288648
20
-33.279846022120196
30
0
0
LINE
5
124
100
AcDbEntity
8
0
100
AcDbLine
10
-68.499904054604144
20
-33.279846022136852
30
0
11
-68.499904054604073
21
33.277709571477224
31
0
0
SPLINE
5
125
100
AcDbEntity
8
0
100
AcDbSpline
70
0
71
3
72
17
73
13
74
0
42
0.000000001
43
0.0000000001
44
0.0000000001
40
-0.00047242448961790843
40
-0.00047242448961790843
40
-0.00047242448961790843
40
-0.00047242448961790843
40
0
40
0
40
0
40
0.44075339760536036
40
0.44075339760536036
40
0.44075339760536036
40
0.83243040652159439
40
0.83243040652159439
40
0.83243040652159439
40
0.95494365231725764
40
0.95494365231725764
40
0.95494365231725764
40
0.95494365231725764
10
-50.0114346946227
20
38.498931774670183
30
0
10
-50.015277791182768
20
38.498990862708872
30
0
10
-50.01912088774364
20
38.499049950747562
30
0
10
-50.022963984304603
20
38.499109038786258
30
0
10
-53.486785781131715
20
38.552365685639657
30
0
10
-56.811404729903145
20
38.174304751954892
30
0
10
-59.842999200783055
20
37.353176963027487
30
0
10
-62.537035959325316
20
36.62347895490673
30
0
10
-64.947979591796198
20
35.571673027626112
30
0
10
-66.850110584076944
20
34.406248748890491
30
0
10
-67.445081022698432
20
34.04171392078802
30
0
10
-67.994640584294203
20
33.664682323311872
30
0
10
-68.499904042288648
20
33.27770957146069
30
0
0
LINE
5
126
100
AcDbEntity
8
0
100
AcDbLine
10
50.011626597716024
20
38.498931774670197
30
0
11
-50.011434706922785
21
38.498931774670162
31
0
0
SPLINE
5
127
100
AcDbEntity
8
0
100
AcDbSpline
70
0
71
3
72
17
73
13
74
0
42
0.000000001
43
0.0000000001
44
0.0000000001
40
-0.00047242448966044169
40
-0.00047242448966044169
40
-0.00047242448966044169
40
-0.00047242448966044169
40
0
40
0
40
0
40
0.44075339761335863
40
0.44075339761335863
40
0.44075339761335863
40
0.83243040651561584
40
0.83243040651561584
40
0.83243040651561584
40
0.95494365231722944
40
0.95494365231722944
40
0.95494365231722944
40
0.95494365231722944
10
50.011626610044061
20
38.498931774670197
30
0
10
50.015469706604705
20
38.498990862708887
30
0
10
50.01931280316591
20
38.49904995074759
30
0
10
50.023155899727236
20
38.499109038786294
30
0
10
53.48697769661684
20
38.552365685640694
30
0
10
56.811596645445903
20
38.174304751940063
30
0
10
59.84319111637209
20
37.353176962982687
30
0
10
62.537227874810462
20
36.623478954874585
30
0
10
64.94817150718066
20
35.571673027635804
30
0
10
66.850302499410091
20
34.406248748943995
30
0
10
67.445272938065642
20
34.041713920824506
30
0
10
67.994832499691867
20
33.664682323330034
30
0
10
68.500095957711167
20
33.27770957146037
30
0
0
LINE
5
128
100
AcDbEntity
8
0
100
AcDbLine
10
68.500095945395913
20
-33.279846022136852
30
0
11
68.500095945395842
21
33.277709571477288
31
0
0
SPLINE
5
129
100
AcDbEntity
8
0
100
AcDbSpline
70
0
71
3
72
17
73
13
74
0
42
0.000000001
43
0.0000000001
44
0.0000000001
40
-0.0004724244895736745
40
-0.0004724244895736745
40
-0.0004724244895736745
40
-0.0004724244895736745
40
0
40
0
40
0
40
0.44075339763137855
40
0.44075339763137855
40
0.44075339763137855
40
0.83243040652211331
40
0.83243040652211331
40
0.83243040652211331
40
0.95494365231721434
40
0.95494365231721434
40
0.95494365231721434
40
0.95494365231721434
10
50.011626610044246
20
-38.501068225329803
30
0
10
50.015469706606041
20
-38.501127313368528
30
0
10
50.019312803166429
20
-38.501186401407217
30
0
10
50.023155899726817
20
-38.501245489445907
30
0
10
53.486977696761777
20
-38.554502136302588
30
0
10
56.81159664571986
20
-38.176441202566387
30
0
10
59.843191116742254
20
-37.355313413541225
30
0
10
62.537227875076731
20
-36.625615405424178
30
0
10
64.948171507346387
20
-35.573809478208162
30
0
10
66.850302499505261
20
-34.408385199545336
30
0
10
67.445272938124631
20
-34.043850371443568
30
0
10
67.994832499719024
20
-33.666818773968721
30
0
10
68.500095957711309
20
-33.279846022119884
30
0
0
LINE
5
130
100
AcDbEntity
8
0
100
AcDbLine
10
50.011626597709984
20
-38.501068225329718
30
0
11
-50.011434706917122
21
-38.501068225329746
31
0
0
SPLINE
5
131
100
AcDbEntity
8
0
100
AcDbSpline
70
4
71
5
72
26
73
20
74
0
42
0.000000001
43
0.0000000001
44
0.0000000001
40
0
40
0
40
0
40
0
40
0
40
0
40
0.066666666666666666
40
0.13333333333333333
40
0.20000000000000001
40
0.26666666666666666
40
0.33333333333333331
40
0.39999999999999997
40
0.46666666666666662
40
0.53333333333333333
40
0.59999999999999998
40
0.66666666666666663
40
0.73333333333333328
40
0.79999999999999993
40
0.86666666666666659
40
0.93333333333333324
40
1
40
1
40
1
40
1
40
1
40
1
41
1
41
1
41
1
41
1
41
1
41
1
41
1
41
1
41
1
41
1
41
1
41
1
41
1
41
1
41
1
41
1
41
1
41
1
41
1
41
1
10
-49.999904054604087
20
39.998931774670055
30
0
10
-50.325297563588464
20
40.003934736191795
30
0
10
-50.97402741146638
20
40.007920275242547
30
0
10
-51.940950634031722
20
39.995837719351989
30
0
10
-53.217749151969414
20
39.943340850815623
30
0
10
-54.791988289084429
20
39.815557663694719
30
0
10
-56.342299429125269
20
39.623795398378157
30
0
10
-57.865061138830569
20
39.366724611627724
30
0
10
-59.354985826713651
20
39.044274078748444
30
0
10
-60.804745243716269
20
38.659037266212231
30
0
10
-62.205338987642747
20
38.216245318684194
30
0
10
-63.547161365916871
20
37.722343446303498
30
0
10
-64.821086487875306
20
37.184156088500288
30
0
10
-66.019566203983373
20
36.608053515784896
30
0
10
-67.138425805292741
20
35.999181064313966
30
0
10
-68.177145143937054
20
35.361110020652127
30
0
10
-68.944896356597468
20
34.829108836745846
30
0
10
-69.485857205628747
20
34.418501091325375
30
0
10
-69.831118302051948
20
34.139641713325901
30
0
10
-69.999904054604087
20
33.998931774670169
30
0
0
LINE
5
132
100
AcDbEntity
8
0
100
AcDbLine
10
50.000095945395884
20
39.998931774670169
30
0
11
-49.999904054604087
21
39.998931774670055
31
0
0
SPLINE
5
133
100
AcDbEntity
8
0
100
AcDbSpline
70
4
71
5
72
26
73
20
74
0
42
0.000000001
43
0.0000000001
44
0.0000000001
40
0
40
0
40
0
40
0
40
0
40
0
40
0.066666666666666666
40
0.13333333333333333
40
0.20000000000000001
40
0.26666666666666666
40
0.33333333333333331
40
0.39999999999999997
40
0.46666666666666662
40
0.53333333333333333
40
0.59999999999999998
40
0.66666666666666663
40
0.73333333333333328
40
0.79999999999999993
40
0.86666666666666659
40
0.93333333333333324
40
1
40
1
40
1
40
1
40
1
40
1
41
1
41
1
41
1
41
1
41
1
41
1
41
1
41
1
41
1
41
1
41
1
41
1
41
1
41
1
41
1
41
1
41
1
41
1
41
1
41
1
10
50.000095945395884
20
39.998931774670083
30
0
10
50.325489454380239
20
40.003934736191823
30
0
10
50.974219302258177
20
40.007920275242569
30
0
10
51.941142524823512
20
39.995837719352018
30
0
10
53.217941042761197
20
39.943340850815659
30
0
10
54.792180179876205
20
39.815557663694754
30
0
10
56.342491319917059
20
39.623795398378185
30
0
10
57.865253029622352
20
39.36672461162776
30
0
10
59.355177717505441
20
39.044274078748472
30
0
10
60.804937134508059
20
38.659037266212259
30
0
10
62.205530878434551
20
38.216245318684223
30
0
10
63.547353256708668
20
37.72234344630354
30
0
10
64.821278378667103
20
37.184156088500316
30
0
10
66.019758094775142
20
36.608053515784931
30
0
10
67.138617696084523
20
35.999181064314001
30
0
10
68.177337034728851
20
35.361110020652163
30
0
10
68.945088247389265
20
34.829108836745881
30
0
10
69.486049096420544
20
34.41850109132541
30
0
10
69.831310192843745
20
34.139641713325936
30
0
10
70.00009594539587
20
33.998931774670204
30
0
0
LINE
5
134
100
AcDbEntity
8
0
100
AcDbLine
10
70.000095945395927
20
-34.001068225329838
30
0
11
70.000095945395856
21
33.998931774670197
31
0
0
SPLINE
5
135
100
AcDbEntity
8
0
100
AcDbSpline
70
4
71
5
72
26
73
20
74
0
42
0.000000001
43
0.0000000001
44
0.0000000001
40
0
40
0
40
0
40
0
40
0
40
0
40
0.066666666666666666
40
0.13333333333333333
40
0.20000000000000001
40
0.26666666666666666
40
0.33333333333333331
40
0.39999999999999997
40
0.46666666666666662
40
0.53333333333333333
40
0.59999999999999998
40
0.66666666666666663
40
0.73333333333333328
40
0.79999999999999993
40
0.86666666666666659
40
0.93333333333333324
40
1
40
1
40
1
40
1
40
1
40
1
41
1
41
1
41
1
41
1
41
1
41
1
41
1
41
1
41
1
41
1
41
1
41
1
41
1
41
1
41
1
41
1
41
1
41
1
41
1
41
1
10
50.000095945395906
20
-40.001068225329703
30
0
10
50.325489454380275
20
-40.006071186851429
30
0
10
50.974219302258199
20
-40.010056725902182
30
0
10
51.941142524823547
20
-39.997974170011631
30
0
10
53.217941042761232
20
-39.945477301475272
30
0
10
54.79218017987624
20
-39.817694114354367
30
0
10
56.342491319917094
20
-39.625931849037805
30
0
10
57.865253029622387
20
-39.368861062287365
30
0
10
59.355177717505477
20
-39.046410529408078
30
0
10
60.804937134508073
20
-38.661173716871872
30
0
10
62.205530878434566
20
-38.218381769343836
30
0
10
63.547353256708689
20
-37.724479896963139
30
0
10
64.821278378667117
20
-37.186292539159922
30
0
10
66.019758094775185
20
-36.610189966444537
30
0
10
67.138617696084552
20
-36.001317514973607
30
0
10
68.177337034728865
20
-35.363246471311768
30
0
10
68.945088247389293
20
-34.83124528740548
30
0
10
69.486049096420558
20
-34.420637541985009
30
0
10
69.831310192843759
20
-34.141778163985535
30
0
10
70.000095945395898
20
-34.001068225329803
30
0
0
LINE
5
136
100
AcDbEntity
8
0
100
AcDbLine
10
50.000095945395906
20
-40.001068225329703
30
0
11
-49.999904054604094
21
-40.001068225329732
31
0
0
SPLINE
5
137
100
AcDbEntity
8
0
100
AcDbSpline
70
4
71
5
72
26
73
20
74
0
42
0.000000001
43
0.0000000001
44
0.0000000001
40
0
40
0
40
0
40
0
40
0
40
0
40
0.066666666666666666
40
0.13333333333333333
40
0.20000000000000001
40
0.26666666666666666
40
0.33333333333333331
40
0.39999999999999997
40
0.46666666666666662
40
0.53333333333333333
40
0.59999999999999998
40
0.66666666666666663
40
0.73333333333333328
40
0.79999999999999993
40
0.86666666666666659
40
0.93333333333333324
40
1
40
1
40
1
40
1
40
1
40
1
41
1
41
1
41
1
41
1
41
1
41
1
41
1
41
1
41
1
41
1
41
1
41
1
41
1
41
1
41
1
41
1
41
1
41
1
41
1
41
1
10
-49.999904054604087
20
-40.001068225329732
30
0
10
-50.325297563588464
20
-40.006071186851464
30
0
10
-50.97402741146638
20
-40.010056725902217
30
0
10
-51.940950634031722
20
-39.997974170011659
30
0
10
-53.217749151969414
20
-39.9454773014753
30
0
10
-54.791988289084429
20
-39.817694114354396
30
0
10
-56.342299429125269
20
-39.625931849037826
30
0
10
-57.865061138830569
20
-39.368861062287401
30
0
10
-59.354985826713651
20
-39.046410529408114
30
0
10
-60.804745243716269
20
-38.6611737168719
30
0
10
-62.205338987642747
20
-38.218381769343864
30
0
10
-63.547161365916871
20
-37.724479896963174
30
0
10
-64.821086487875306
20
-37.186292539159957
30
0
10
-66.019566203983373
20
-36.610189966444572
30
0
10
-67.138425805292741
20
-36.001317514973643
30
0
10
-68.177145143937054
20
-35.363246471311804
30
0
10
-68.944896356597468
20
-34.831245287405523
30
0
10
-69.485857205628747
20
-34.420637541985045
30
0
10
-69.831118302051948
20
-34.14177816398557
30
0
10
-69.999904054604087
20
-34.001068225329838
30
0
0
CIRCLE
5
138
100
AcDbEntity
8
0
100
AcDbCircle
10
51.976219817377995
20
35.89893177467016
30
0
40
2.5
210
0
220
0
230
1
0
CIRCLE
5
139
100
AcDbEntity
8
0
100
AcDbCircle
10
51.976219817377995
20
35.89893177467016
30
0
40
1.25
210
0
220
0
230
1
0
CIRCLE
5
140
100
AcDbEntity
8
0
100
AcDbCircle
10
51.976219817377995
20
35.89893177467016
30
0
40
4
210
0
220
0
230
1
0
LINE
5
141
100
AcDbEntity
8
0
100
AcDbLine
10
-68.499904054604073
20
33.277709571477224
30
0
11
-69.999904054604073
21
33.277709571477224
31
0
0
LINE
5
142
100
AcDbEntity
8
0
100
AcDbLine
10
-68.499904054604144
20
-33.279846022136852
30
0
11
-69.999904054604087
21
-33.279846022136852
31
0
0
LINE
5
143
100
AcDbEntity
8
0
100
AcDbLine
10
70.000095957711309
20
-24.001068225329547
30
0
11
68.500095957711181
21
-24.001068225329554
31
0
0
LINE
5
144
100
AcDbEntity
8
0
100
AcDbLine
10
70.000095957711267
20
30.498931774670453
30
0
11
68.500095957711153
21
30.498931774670449
31
0
0
LINE
5
145
100
AcDbEntity
8
0
100
AcDbLine
10
68.500095945395771
20
30.498931774670453
30
0
11
70.000095945395884
21
30.498931774670453
31
0
0
LINE
5
146
100
AcDbEntity
8
0
100
AcDbLine
10
68.500095957711181
20
-24.001068225329554
30
0
11
70.00009595771121
21
-24.001068225329547
31
0
0
LINE
5
147
100
AcDbEntity
8
0
100
AcDbLine
10
-68.499904054604144
20
-33.279846022136852
30
0
11
-48.999904054604073
21
-33.279846022136852
31
0
0
LINE
5
148
100
AcDbEntity
8
0
100
AcDbLine
10
-68.499904054604073
20
33.277709571477224
30
0
11
-48.999903822476796
21
33.27770957147726
31
0
0
LINE
5
149
100
AcDbEntity
8
0
100
AcDbLine
10
-66.219649964386974
20
-34.779846022136852
30
0
11
-48.999904054604073
21
-34.779846022136852
31
0
0
LINE
5
150
100
AcDbEntity
8
0
100
AcDbLine
10
-66.219649978418019
20
34.777709563524574
30
0
11
-48.999903817245368
21
34.777709503468685
31
0
0
LINE
5
151
100
AcDbEntity
8
0
100
AcDbLine
10
-69.999904054604087
20
-34.001068225329838
30
0
11
-69.999904054604087
21
-33.279846022136852
31
0
0
LINE
5
152
100
AcDbEntity
8
0
100
AcDbLine
10
-69.999904054604073
20
33.277709571477224
30
0
11
-69.999904054604073
21
33.998931774670169
31
0
0
LINE
5
153
100
AcDbEntity
8
0
100
AcDbLine
10
-56.499904042288698
20
-0.62238856888948035
30
0
11
-56.499904042410293
21
38.065268586025134
31
0
0
LINE
5
154
100
AcDbEntity
8
0
100
AcDbLine
10
-58.621224385848336
20
1.4989317746701625
30
0
11
-56.499904042288698
21
-0.62238856888948035
31
0
0
LINE
5
155
100
AcDbEntity
8
0
100
AcDbLine
10
-58.621224385848336
20
-37.659643557706836
30
0
11
-58.621224385848336
21
1.4989317746701625
31
0
0
LINE
5
156
100
AcDbEntity
8
0
100
AcDbLine
10
-58.871224398162155
20
-34.779846022136852
30
0
11
-58.871224398162155
21
2.1024851652634347
31
0
0
LINE
5
157
100
AcDbEntity
8
0
100
AcDbLine
10
-58.871224398162155
20
2.1024851652634347
30
0
11
-56.749904054889093
21
-0.018835178009615761
31
0
0
LINE
5
158
100
AcDbEntity
8
0
100
AcDbLine
10
-56.749904054889093
20
-0.018835178009615761
30
0
11
-56.749904054750893
21
34.777709530497717
31
0
0
CIRCLE
5
159
100
AcDbEntity
8
0
100
AcDbCircle
10
-60.441218370972834
20
23.75896949402577
30
0
40
1.1499999999999999
210
0
220
0
230
1
0
CIRCLE
5
160
100
AcDbEntity
8
0
100
AcDbCircle
10
-62.170555519644772
20
-27.001068225329625
30
0
40
1.1499999999999999
210
0
220
0
230
1
0
CIRCLE
5
161
100
AcDbEntity
8
0
100
AcDbCircle
10
-62.170555519644772
20
-27.001068225329625
30
0
40
1.1500000000000021
210
0
220
0
230
1
0
CIRCLE
5
162
100
AcDbEntity
8
0
100
AcDbCircle
10
-60.441218370972834
20
23.75896949402577
30
0
40
1.1500000000000021
210
0
220
0
230
1
0
LINE
5
163
100
AcDbEntity
8
0
100
AcDbLine
10
-48.99990405460408
20
-38.501068225329746
30
0
11
-48.999904054604102
21
38.498931774670162
31
0
0
LINE
5
164
100
AcDbEntity
8
0
100
AcDbLine
10
-50.499904054604052
20
-38.505855096185414
30
0
11
-50.499904054604059
21
-34.779846022136852
31
0
0
LINE
5
165
100
AcDbEntity
8
0
100
AcDbLine
10
-50.499904054604094
20
34.777709508700113
30
0
11
-50.499904054604102
21
38.503718655187825
31
0
0
LINE
5
166
100
AcDbEntity
8
0
100
AcDbLine
10
-0.88431654607750487
20
-40.001068225329739
30
0
11
-0.8843147578262861
21
33.248932893932079
31
0
0
LINE
5
167
100
AcDbEntity
8
0
100
AcDbLine
10
25.871232800537761
20
-40.001068225329718
30
0
11
25.871234588788965
21
33.248932240749234
31
0
0
LINE
5
168
100
AcDbEntity
8
0
100
AcDbLine
10
-58.871224398162155
20
-34.779846022136852
30
0
11
-58.871224398162155
21
-37.601048545835631
31
0
0
LINE
5
169
100
AcDbEntity
8
0
100
AcDbLine
10
-57.21356759123524
20
34.777709532114798
30
0
11
-57.213567580199069
21
37.942095820300857
31
0
0
LINE
5
170
100
AcDbEntity
8
0
100
AcDbLine
10
-58.713567591235247
20
34.777709537346226
30
0
11
-58.713567581268116
21
37.635570941989897
31
0
0
LINE
5
171
100
AcDbEntity
8
0
100
AcDbLine
10
-60.371224398162155
20
-34.779846022136852
30
0
11
-60.371224398162155
21
-37.207099051017479
31
0
0
CIRCLE
5
172
100
AcDbEntity
8
0
100
AcDbCircle
10
-13.499904042288705
20
27.998931774670144
30
0
40
2.5
210
0
220
0
230
1
0
CIRCLE
5
173
100
AcDbEntity
8
0
100
AcDbCircle
10
-13.499904042288705
20
27.998931774670144
30
0
40
1.25
210
0
220
0
230
1
0
CIRCLE
5
174
100
AcDbEntity
8
0
100
AcDbCircle
10
-13.499904042288705
20
27.998931774670144
30
0
40
4
210
0
220
0
230
1
0
CIRCLE
5
175
100
AcDbEntity
8
0
100
AcDbCircle
10
44.500095957711309
20
-21.001068225329842
30
0
40
1.25
210
0
220
0
230
1
0
CIRCLE
5
176
100
AcDbEntity
8
0
100
AcDbCircle
10
44.500095957711309
20
-21.001068225329842
30
0
40
1.25
210
0
220
0
230
1
0
CIRCLE
5
177
100
AcDbEntity
8
0
100
AcDbCircle
10
44.500095957711309
20
-21.001068225329842
30
0
40
3.2499999999999982
210
0
220
0
230
1
0
CIRCLE
5
178
100
AcDbEntity
8
0
100
AcDbCircle
10
44.500095957711309
20
-21.001068225329842
30
0
40
4.7500000000000027
210
0
220
0
230
1
0
ENDSEC
0
SECTION
2
OBJECTS
0
DICTIONARY
5
C
100
AcDbDictionary
3
ACAD_GROUP
350
D
3
ACAD_MLINESTYLE
350
17
0
DICTIONARY
5
D
100
AcDbDictionary
0
DICTIONARY
5
1A
330
C
100
AcDbDictionary
0
DICTIONARY
5
17
100
AcDbDictionary
0
ENDSEC
0
EOF
