0
SECTION
2
HEADER
9
$INSUNITS
70
4
9
$ACADVER
1
AC1014
9
$HANDSEED
5
FFFF
0
ENDSEC
0
SECTION
2
TABLES
0
TABLE
2
VPORT
5
8
100
AcDbSymbolTable
0
ENDTAB
0
TABLE
2
LTYPE
5
5
100
AcDbSymbolTable
0
LTYPE
5
14
100
AcDbSymbolTableRecord
100
AcDbLinetypeTableRecord
2
BYBLOCK
70
0
0
LTYPE
5
15
100
AcDbSymbolTableRecord
100
AcDbLinetypeTableRecord
2
BYLAYER
70
0
0
ENDTAB
0
TABLE
2
LAYER
5
2
100
AcDbSymbolTable
70
2
0
LAYER
5
50
100
AcDbSymbolTableRecord
100
AcDbLayerTableRecord
2
0
70
0
6
CONTINUOUS
0
ENDTAB
0
TABLE
2
STYLE
5
3
100
AcDbSymbolTable
70
1
0
STYLE
5
11
100
AcDbSymbolTableRecord
100
AcDbTextStyleTableRecord
2
STANDARD
70
0
0
ENDTAB
0
TABLE
2
VIEW
5
6
100
AcDbSymbolTable
70
0
0
ENDTAB
0
TABLE
2
UCS
5
7
100
AcDbSymbolTable
70
0
0
ENDTAB
0
TABLE
2
APPID
5
9
100
AcDbSymbolTable
70
2
0
APPID
5
12
100
AcDbSymbolTableRecord
100
AcDbRegAppTableRecord
2
ACAD
70
0
0
ENDTAB
0
TABLE
2
DIMSTYLE
5
A
100
AcDbSymbolTable
70
1
0
ENDTAB
0
TABLE
2
BLOCK_RECORD
5
1
100
AcDbSymbolTable
70
1
0
BLOCK_RECORD
5
1F
100
AcDbSymbolTableRecord
100
AcDbBlockTableRecord
2
*MODEL_SPACE
0
BLOCK_RECORD
5
1B
100
AcDbSymbolTableRecord
100
AcDbBlockTableRecord
2
*PAPER_SPACE
0
ENDTAB
0
ENDSEC
0
SECTION
2
BLOCKS
0
BLOCK
5
20
100
AcDbEntity
100
AcDbBlockBegin
2
*MODEL_SPACE
0
ENDBLK
5
21
100
AcDbEntity
100
AcDbBlockEnd
0
BLOCK
5
1C
100
AcDbEntity
100
AcDbBlockBegin
2
*PAPER_SPACE
0
ENDBLK
5
1D
100
AcDbEntity
100
AcDbBlockEnd
0
ENDSEC
0
SECTION
2
ENTITIES
0
CIRCLE
5
100
100
AcDbEntity
8
0
100
AcDbCircle
10
-118.4496486126009
20
-76.249918387569778
30
0
40
2.2499999999999991
210
0
220
-0
230
1
0
CIRCLE
5
101
100
AcDbEntity
8
0
100
AcDbCircle
10
-118.4496486126009
20
-76.249918387564946
30
0
40
1.1000000000000001
210
0
220
-0
230
1
0
CIRCLE
5
102
100
AcDbEntity
8
0
100
AcDbCircle
10
-21.549648612601644
20
-76.249918387564946
30
0
40
2.2499999999999991
210
0
220
-0
230
1
0
CIRCLE
5
103
100
AcDbEntity
8
0
100
AcDbCircle
10
-21.549648612601644
20
-76.249918387564946
30
0
40
1.1000000000000001
210
0
220
-0
230
1
0
CIRCLE
5
104
100
AcDbEntity
8
0
100
AcDbCircle
10
-21.549648612601644
20
-76.249918387564946
30
0
40
2.2499999999999987
210
0
220
-0
230
1
0
CIRCLE
5
105
100
AcDbEntity
8
0
100
AcDbCircle
10
-21.549648612601644
20
-76.249918387564946
30
0
40
1.0999999999999988
210
0
220
-0
230
1
0
CIRCLE
5
106
100
AcDbEntity
8
0
100
AcDbCircle
10
-118.4496486126009
20
-76.249918387569778
30
0
40
2.2499999999999964
210
0
220
-0
230
1
0
CIRCLE
5
107
100
AcDbEntity
8
0
100
AcDbCircle
10
-118.4496486126009
20
-76.249918387564946
30
0
40
1.0999999999999943
210
0
220
-0
230
1
0
CIRCLE
5
108
100
AcDbEntity
8
0
100
AcDbCircle
10
-118.4496486126009
20
-76.249918387569778
30
0
40
3.25
210
0
220
0
230
1
0
CIRCLE
5
109
100
AcDbEntity
8
0
100
AcDbCircle
10
-21.549648612601644
20
-76.249918387564946
30
0
40
3.25
210
0
220
0
230
1
0
LINE
5
110
100
AcDbEntity
8
0
100
AcDbLine
10
-69.998895782731566
20
-77.315258087635073
30
0
11
-69.998895782731523
21
-2.6847419123648564
31
0
0
LINE
5
111
100
AcDbEntity
8
0
100
AcDbLine
10
-3.9988311023130318
20
-39.999999999999943
30
0
11
-135.99896046314998
21
-39.999999999999972
31
0
0
LINE
5
112
100
AcDbEntity
8
0
100
AcDbLine
10
-15.248895787968856
20
-0.22188703336248783
30
0
11
-15.248895787685864
21
-39.999999999717204
31
0
0
LINE
5
113
100
AcDbEntity
8
0
100
AcDbLine
10
-19.299675478503772
20
-7.0101556676062273
30
0
11
-15.248895787920571
21
-7.0096800115434164
31
0
0
LINE
5
114
100
AcDbEntity
8
0
100
AcDbLine
10
-15.242471772724681
20
-2.9519990291284164
30
0
11
-19.299675478503772
21
-7.0101556676062273
31
0
0
LINE
5
115
100
AcDbEntity
8
0
100
AcDbLine
10
-19.299675478503772
20
-7.0101556676062273
30
0
11
-19.299675478503772
21
0.005187856405524105
31
0
0
SPLINE
5
116
100
AcDbEntity
8
0
100
AcDbSpline
70
4
71
5
72
14
73
8
74
0
42
0.000000001
43
0.0000000001
44
0.0000000001
40
0
40
0
40
0
40
0
40
0
40
0
40
0.066666666666666666
40
0.13333333333333333
40
0.19845996964267595
40
0.19845996964267595
40
0.19845996964267595
40
0.19845996964267595
40
0.19845996964267595
40
0.19845996964267595
41
1
41
1
41
1
41
1
41
1
41
1
41
1
41
1
10
-19.998895782731537
20
-1.0658141036401503e-13
30
0
10
-19.673502273747168
20
0.0050029615216296008
30
0
10
-19.024772425869244
20
0.0089885005723822076
30
0
10
-18.065294658883669
20
-0.0030010178038481286
30
0
10
-17.114998181295782
20
-0.04186197402992374
30
0
10
-16.174339503519285
20
-0.10826156524921556
30
0
10
-15.5541947614478
20
-0.16473432903423987
30
0
10
-15.248895787969047
20
-0.19568801221922616
30
0
0
LINE
5
117
100
AcDbEntity
8
0
100
AcDbLine
10
-119.99889578273152
20
2.8782021988938313e-15
30
0
11
-19.998895782731534
21
-1.0658141036401503e-13
31
0
0
SPLINE
5
118
100
AcDbEntity
8
0
100
AcDbSpline
70
0
71
3
72
11
73
7
74
0
42
0.000000001
43
0.0000000001
44
0.0000000001
40
-0.0004724244893797888
40
-0.0004724244893797888
40
-0.0004724244893797888
40
-0.0004724244893797888
40
0
40
0
40
0
40
0.02876595825669858
40
0.02876595825669858
40
0.02876595825669858
40
0.02876595825669858
10
-19.987365130428692
20
-1.5000000000002536
30
0
10
-19.983522033870447
20
-1.4999409119616964
30
0
10
-19.979678937312212
20
-1.4998818239231391
30
0
10
-19.975835840753977
20
-1.4998227358845817
30
0
10
-19.749768035620651
20
-1.4963469181464972
30
0
10
-19.524373968992219
20
-1.4946626191486634
30
0
10
-19.299675479645892
20
-1.4947830461767246
30
0
0
LINE
5
119
100
AcDbEntity
8
0
100
AcDbLine
10
-21.549304286543922
20
-1.4999999999999969
30
0
11
-19.987365130428692
21
-1.5000000000002536
31
0
0
CIRCLE
5
120
100
AcDbEntity
8
0
100
AcDbCircle
10
-21.549304286543926
20
-3.7496288080401516
30
0
40
2.2496288080401547
210
0
220
-0
230
1
0
CIRCLE
5
121
100
AcDbEntity
8
0
100
AcDbCircle
10
-21.550663048321283
20
-3.7475272429858553
30
0
40
1.1005658508019871
210
0
220
-0
230
1
0
LINE
5
122
100
AcDbEntity
8
0
100
AcDbLine
10
-15.248895787685864
20
-39.999999999717204
30
0
11
-15.248895787402876
21
-79.778112966581617
31
0
0
SPLINE
5
123
100
AcDbEntity
8
0
100
AcDbSpline
70
4
71
5
72
14
73
8
74
0
42
0.000000001
43
0.0000000001
44
0.0000000001
40
0
40
0
40
0
40
0
40
0
40
0
40
0.066666666666666666
40
0.13333333333333333
40
0.19845996966683893
40
0.19845996966683893
40
0.19845996966683893
40
0.19845996966683893
40
0.19845996966683893
40
0.19845996966683893
41
1
41
1
41
1
41
1
41
1
41
1
41
1
41
1
10
-19.998895782731537
20
-79.999999999999886
30
0
10
-19.673502273747168
20
-80.005002961521626
30
0
10
-19.024772425869244
20
-80.008988500572386
30
0
10
-18.065294658766852
20
-79.996998982194697
30
0
10
-17.114998181064379
20
-79.958138025960622
30
0
10
-16.174339503175702
20
-79.891738434726534
30
0
10
-15.554194760993012
20
-79.835265670924329
30
0
10
-15.248895787402699
20
-79.804311987723352
30
0
0
LINE
5
124
100
AcDbEntity
8
0
100
AcDbLine
10
-119.99889578273154
20
-79.999999999999915
30
0
11
-19.998895782731534
21
-79.999999999999886
31
0
0
SPLINE
5
125
100
AcDbEntity
8
0
100
AcDbSpline
70
4
71
5
72
14
73
8
74
0
42
0.000000001
43
0.0000000001
44
0.0000000001
40
0
40
0
40
0
40
0
40
0
40
0
40
0.066666666666666666
40
0.13333333333333333
40
0.19845996965191265
40
0.19845996965191265
40
0.19845996965191265
40
0.19845996965191265
40
0.19845996965191265
40
0.19845996965191265
41
1
41
1
41
1
41
1
41
1
41
1
41
1
41
1
10
-119.99889578273154
20
-79.999999999999872
30
0
10
-120.3242892917159
20
-80.005002961521598
30
0
10
-120.97301913959383
20
-80.008988500572343
30
0
10
-121.93249690662407
20
-79.996998982195578
30
0
10
-122.88279338425575
20
-79.958138025966434
30
0
10
-123.82345206207512
20
-79.891738434741498
30
0
10
-124.44359680418913
20
-79.835265670949909
30
0
10
-124.74889577771053
20
-79.80431198775878
30
0
0
LINE
5
126
100
AcDbEntity
8
0
100
AcDbLine
10
-124.74889577771039
20
-79.778112966617215
30
0
11
-124.74889577749265
21
-40.000000000001307
31
0
0
LINE
5
127
100
AcDbEntity
8
0
100
AcDbLine
10
-124.74889577749265
20
-40.000000000001307
30
0
11
-124.74889577806022
21
-0.22188703342083116
31
0
0
LINE
5
128
100
AcDbEntity
8
0
100
AcDbLine
10
-120.69811608695147
20
-7.0101556676041996
30
0
11
-124.74889577754247
21
-7.0096800115433657
31
0
0
LINE
5
129
100
AcDbEntity
8
0
100
AcDbLine
10
-124.75531979273838
20
-2.951999029132895
30
0
11
-120.69811608695147
21
-7.0101556676041996
31
0
0
LINE
5
130
100
AcDbEntity
8
0
100
AcDbLine
10
-120.69811608695147
20
-7.0101556676041996
30
0
11
-120.69811608695343
21
0.0051878564055696241
31
0
0
SPLINE
5
131
100
AcDbEntity
8
0
100
AcDbSpline
70
4
71
5
72
14
73
8
74
0
42
0.000000001
43
0.0000000001
44
0.0000000001
40
0
40
0
40
0
40
0
40
0
40
0
40
0.066666666666666666
40
0.13333333333333333
40
0.19845996966684762
40
0.19845996966684762
40
0.19845996966684762
40
0.19845996966684762
40
0.19845996966684762
40
0.19845996966684762
41
1
41
1
41
1
41
1
41
1
41
1
41
1
41
1
10
-119.99889578273152
20
-7.8194859015430279e-14
30
0
10
-120.32428929171587
20
0.0050029615216581032
30
0
10
-120.97301913959382
20
0.0089885005724109415
30
0
10
-121.93249690669624
20
-0.0030010178052793293
30
0
10
-122.88279338439877
20
-0.041861974039360567
30
0
10
-123.82345206228747
20
-0.10826156527344748
30
0
10
-124.44359680447019
20
-0.16473432907563965
30
0
10
-124.74889577806056
20
-0.19568801227663812
30
0
0
SPLINE
5
132
100
AcDbEntity
8
0
100
AcDbSpline
70
0
71
3
72
11
73
7
74
0
42
0.000000001
43
0.0000000001
44
0.0000000001
40
-0.00047242448875528249
40
-0.00047242448875528249
40
-0.00047242448875528249
40
-0.00047242448875528249
40
0
40
0
40
0
40
0.028765958256431065
40
0.028765958256431065
40
0.028765958256431065
40
0.028765958256431065
10
-120.01042643504968
20
-1.4999999999999902
30
0
10
-120.01426953160276
20
-1.4999409119615115
30
0
10
-120.01811262815593
20
-1.4998818239230323
30
0
10
-120.0219557247091
20
-1.4998227358845528
30
0
10
-120.24802352984031
20
-1.4963469181465008
30
0
10
-120.47341759646663
20
-1.4946626191486643
30
0
10
-120.6981160858109
20
-1.4947830461766878
30
0
0
LINE
5
133
100
AcDbEntity
8
0
100
AcDbLine
10
-120.01042643504917
20
-1.4999999999999978
30
0
11
-118.44848727891913
21
-1.4999999999999503
31
0
0
CIRCLE
5
134
100
AcDbEntity
8
0
100
AcDbCircle
10
-118.44848727891913
20
-3.7496288080401055
30
0
40
2.2496288080401547
210
0
220
-0
230
1
0
CIRCLE
5
135
100
AcDbEntity
8
0
100
AcDbCircle
10
-118.44712851714178
20
-3.7475272429858109
30
0
40
1.1005658508019871
210
0
220
-0
230
1
0
LINE
5
136
100
AcDbEntity
8
0
100
AcDbLine
10
-124.74889577806022
20
-0.22188703342083116
30
0
11
-124.74889577806059
21
-0.19568801227656996
31
0
0
LINE
5
137
100
AcDbEntity
8
0
100
AcDbLine
10
-15.248895787968856
20
-0.22188703336248783
30
0
11
-15.24889578796904
21
-0.19568801221915688
31
0
0
LINE
5
138
100
AcDbEntity
8
0
100
AcDbLine
10
-15.248895787402876
20
-79.778112966581617
30
0
11
-15.24889578740269
21
-79.804311987723409
31
0
0
LINE
5
139
100
AcDbEntity
8
0
100
AcDbLine
10
-124.74889577771039
20
-79.778112966617215
30
0
11
-124.74889577771053
21
-79.804311987758865
31
0
0
SPLINE
5
140
100
AcDbEntity
8
0
100
AcDbSpline
70
4
71
5
72
14
73
8
74
0
42
0.000000001
43
0.0000000001
44
0.0000000001
40
0
40
0
40
0
40
0
40
0
40
0
40
0.066666666666666666
40
0.13333333333333333
40
0.19845996966683893
40
0.19845996966683893
40
0.19845996966683893
40
0.19845996966683893
40
0.19845996966683893
40
0.19845996966683893
41
1
41
1
41
1
41
1
41
1
41
1
41
1
41
1
10
-19.998895782731537
20
-79.999999999999886
30
0
10
-19.673502273747168
20
-80.005002961521626
30
0
10
-19.024772425869244
20
-80.008988500572386
30
0
10
-18.065294658766852
20
-79.996998982194697
30
0
10
-17.114998181064379
20
-79.958138025960622
30
0
10
-16.174339503175702
20
-79.891738434726534
30
0
10
-15.554194760993012
20
-79.835265670924329
30
0
10
-15.248895787402699
20
-79.804311987723352
30
0
0
LINE
5
141
100
AcDbEntity
8
0
100
AcDbLine
10
-15.248895787402876
20
-79.778112966581617
30
0
11
-15.248895787402697
21
-79.804311987723352
31
0
0
LINE
5
142
100
AcDbEntity
8
0
100
AcDbLine
10
-15.248895787685864
20
-39.999999999717204
30
0
11
-15.248895787402876
21
-79.778112966581617
31
0
0
LINE
5
143
100
AcDbEntity
8
0
100
AcDbLine
10
-15.248895787968856
20
-0.22188703336248783
30
0
11
-15.248895787685864
21
-39.999999999717204
31
0
0
LINE
5
144
100
AcDbEntity
8
0
100
AcDbLine
10
-15.248895787968856
20
-0.22188703336248783
30
0
11
-15.24889578796904
21
-0.19568801221915688
31
0
0
SPLINE
5
145
100
AcDbEntity
8
0
100
AcDbSpline
70
4
71
5
72
14
73
8
74
0
42
0.000000001
43
0.0000000001
44
0.0000000001
40
0
40
0
40
0
40
0
40
0
40
0
40
0.066666666666666666
40
0.13333333333333333
40
0.19845996964267595
40
0.19845996964267595
40
0.19845996964267595
40
0.19845996964267595
40
0.19845996964267595
40
0.19845996964267595
41
1
41
1
41
1
41
1
41
1
41
1
41
1
41
1
10
-19.998895782731537
20
-1.0658141036401503e-13
30
0
10
-19.673502273747168
20
0.0050029615216296008
30
0
10
-19.024772425869244
20
0.0089885005723822076
30
0
10
-18.065294658883669
20
-0.0030010178038481286
30
0
10
-17.114998181295782
20
-0.04186197402992374
30
0
10
-16.174339503519285
20
-0.10826156524921556
30
0
10
-15.5541947614478
20
-0.16473432903423987
30
0
10
-15.248895787969047
20
-0.19568801221922616
30
0
0
LINE
5
146
100
AcDbEntity
8
0
100
AcDbLine
10
-119.99889578273152
20
2.8782021988938313e-15
30
0
11
-19.998895782731537
21
-1.0658141036401503e-13
31
0
0
SPLINE
5
147
100
AcDbEntity
8
0
100
AcDbSpline
70
4
71
5
72
14
73
8
74
0
42
0.000000001
43
0.0000000001
44
0.0000000001
40
0
40
0
40
0
40
0
40
0
40
0
40
0.066666666666666666
40
0.13333333333333333
40
0.19845996966684762
40
0.19845996966684762
40
0.19845996966684762
40
0.19845996966684762
40
0.19845996966684762
40
0.19845996966684762
41
1
41
1
41
1
41
1
41
1
41
1
41
1
41
1
10
-119.99889578273152
20
-7.8194859015430279e-14
30
0
10
-120.32428929171587
20
0.0050029615216581032
30
0
10
-120.97301913959382
20
0.0089885005724109415
30
0
10
-121.93249690669624
20
-0.0030010178052793293
30
0
10
-122.88279338439877
20
-0.041861974039360567
30
0
10
-123.82345206228747
20
-0.10826156527344748
30
0
10
-124.44359680447019
20
-0.16473432907563965
30
0
10
-124.74889577806056
20
-0.19568801227663812
30
0
0
LINE
5
148
100
AcDbEntity
8
0
100
AcDbLine
10
-124.74889577806022
20
-0.22188703342083116
30
0
11
-124.74889577806056
21
-0.19568801227663812
31
0
0
LINE
5
149
100
AcDbEntity
8
0
100
AcDbLine
10
-124.74889577749265
20
-40.000000000001307
30
0
11
-124.74889577806022
21
-0.22188703342083116
31
0
0
LINE
5
150
100
AcDbEntity
8
0
100
AcDbLine
10
-124.74889577771039
20
-79.778112966617215
30
0
11
-124.74889577749265
21
-40.000000000001307
31
0
0
LINE
5
151
100
AcDbEntity
8
0
100
AcDbLine
10
-124.74889577771039
20
-79.778112966617215
30
0
11
-124.74889577771053
21
-79.804311987758865
31
0
0
SPLINE
5
152
100
AcDbEntity
8
0
100
AcDbSpline
70
4
71
5
72
14
73
8
74
0
42
0.000000001
43
0.0000000001
44
0.0000000001
40
0
40
0
40
0
40
0
40
0
40
0
40
0.066666666666666666
40
0.13333333333333333
40
0.19845996965191265
40
0.19845996965191265
40
0.19845996965191265
40
0.19845996965191265
40
0.19845996965191265
40
0.19845996965191265
41
1
41
1
41
1
41
1
41
1
41
1
41
1
41
1
10
-119.99889578273154
20
-79.999999999999872
30
0
10
-120.3242892917159
20
-80.005002961521598
30
0
10
-120.97301913959383
20
-80.008988500572343
30
0
10
-121.93249690662407
20
-79.996998982195578
30
0
10
-122.88279338425575
20
-79.958138025966434
30
0
10
-123.82345206207512
20
-79.891738434741498
30
0
10
-124.44359680418913
20
-79.835265670949909
30
0
10
-124.74889577771053
20
-79.80431198775878
30
0
0
LINE
5
153
100
AcDbEntity
8
0
100
AcDbLine
10
-119.99889578273154
20
-79.999999999999872
30
0
11
-19.998895782731537
21
-79.999999999999886
31
0
0
LINE
5
154
100
AcDbEntity
8
0
100
AcDbLine
10
-15.242471772724681
20
-2.9519990291284164
30
0
11
-19.299675478503772
21
-7.0101556676062273
31
0
0
LINE
5
155
100
AcDbEntity
8
0
100
AcDbLine
10
-19.299675478503772
20
-7.0101556676062273
30
0
11
-15.248895787920571
21
-7.0096800115434164
31
0
0
LINE
5
156
100
AcDbEntity
8
0
100
AcDbLine
10
-19.299675478503772
20
-7.0101556676062273
30
0
11
-19.299675478503772
21
0.005187856405524105
31
0
0
CIRCLE
5
157
100
AcDbEntity
8
0
100
AcDbCircle
10
-21.549304286543926
20
-3.7496288080401516
30
0
40
2.2496288080401539
210
0
220
-0
230
1
0
LINE
5
158
100
AcDbEntity
8
0
100
AcDbLine
10
-21.549304286543922
20
-1.4999999999999969
30
0
11
-19.987365130428692
21
-1.5000000000002536
31
0
0
SPLINE
5
159
100
AcDbEntity
8
0
100
AcDbSpline
70
0
71
3
72
11
73
7
74
0
42
0.000000001
43
0.0000000001
44
0.0000000001
40
-0.0004724244893797888
40
-0.0004724244893797888
40
-0.0004724244893797888
40
-0.0004724244893797888
40
0
40
0
40
0
40
0.02876595825669858
40
0.02876595825669858
40
0.02876595825669858
40
0.02876595825669858
10
-19.987365130428692
20
-1.5000000000002536
30
0
10
-19.983522033870447
20
-1.4999409119616964
30
0
10
-19.979678937312212
20
-1.4998818239231391
30
0
10
-19.975835840753977
20
-1.4998227358845817
30
0
10
-19.749768035620651
20
-1.4963469181464972
30
0
10
-19.524373968992219
20
-1.4946626191486634
30
0
10
-19.299675479645892
20
-1.4947830461767246
30
0
0
CIRCLE
5
160
100
AcDbEntity
8
0
100
AcDbCircle
10
-21.550663048321283
20
-3.7475272429858553
30
0
40
1.1005658508019867
210
0
220
-0
230
1
0
LINE
5
161
100
AcDbEntity
8
0
100
AcDbLine
10
-124.75531979273838
20
-2.951999029132895
30
0
11
-120.69811608695147
21
-7.0101556676042005
31
0
0
LINE
5
162
100
AcDbEntity
8
0
100
AcDbLine
10
-120.69811608695147
20
-7.0101556676042005
30
0
11
-124.74889577754247
21
-7.0096800115433657
31
0
0
LINE
5
163
100
AcDbEntity
8
0
100
AcDbLine
10
-120.69811608695147
20
-7.0101556676041996
30
0
11
-120.69811608695343
21
0.0051878564055696241
31
0
0
CIRCLE
5
164
100
AcDbEntity
8
0
100
AcDbCircle
10
-118.44848727891913
20
-3.7496288080401055
30
0
40
2.2496288080401605
210
0
220
-0
230
1
0
CIRCLE
5
165
100
AcDbEntity
8
0
100
AcDbCircle
10
-118.44712851714178
20
-3.7475272429858109
30
0
40
1.1005658508019955
210
0
220
-0
230
1
0
SPLINE
5
166
100
AcDbEntity
8
0
100
AcDbSpline
70
0
71
3
72
11
73
7
74
0
42
0.000000001
43
0.0000000001
44
0.0000000001
40
-0.00047242448875528249
40
-0.00047242448875528249
40
-0.00047242448875528249
40
-0.00047242448875528249
40
0
40
0
40
0
40
0.028765958256431065
40
0.028765958256431065
40
0.028765958256431065
40
0.028765958256431065
10
-120.01042643504968
20
-1.4999999999999902
30
0
10
-120.01426953160276
20
-1.4999409119615115
30
0
10
-120.01811262815593
20
-1.4998818239230323
30
0
10
-120.0219557247091
20
-1.4998227358845528
30
0
10
-120.24802352984031
20
-1.4963469181465008
30
0
10
-120.47341759646663
20
-1.4946626191486643
30
0
10
-120.6981160858109
20
-1.4947830461766878
30
0
0
LINE
5
167
100
AcDbEntity
8
0
100
AcDbLine
10
-120.01042643504968
20
-1.4999999999999902
30
0
11
-118.44848727891913
21
-1.4999999999999503
31
0
0
LINE
5
168
100
AcDbEntity
8
0
100
AcDbLine
10
-119.99889578273154
20
-79.999999999999872
30
0
11
-19.998895782731534
21
-79.999999999999886
31
0
0
LINE
5
169
100
AcDbEntity
8
0
100
AcDbLine
10
-15.248895787402697
20
-79.804311987723352
30
0
11
-15.248895787969055
21
-0.19568801221922172
31
0
0
SPLINE
5
170
100
AcDbEntity
8
0
100
AcDbSpline
70
4
71
5
72
14
73
8
74
0
42
0.000000001
43
0.0000000001
44
0.0000000001
40
-0.19845996964267595
40
-0.19845996964267595
40
-0.19845996964267595
40
-0.19845996964267595
40
-0.19845996964267595
40
-0.19845996964267595
40
-0.13333333333333333
40
-0.066666666666666666
40
0
40
0
40
0
40
0
40
0
40
0
41
1
41
1
41
1
41
1
41
1
41
1
41
1
41
1
10
-15.248895787969047
20
-0.19568801221922616
30
0
10
-15.5541947614478
20
-0.16473432903423987
30
0
10
-16.174339503519285
20
-0.10826156524921556
30
0
10
-17.114998181295782
20
-0.04186197402992374
30
0
10
-18.065294658883669
20
-0.0030010178038481286
30
0
10
-19.024772425869244
20
0.0089885005723822076
30
0
10
-19.673502273747168
20
0.0050029615216296008
30
0
10
-19.998895782731537
20
-1.0658141036401503e-13
30
0
0
LINE
5
171
100
AcDbEntity
8
0
100
AcDbLine
10
-19.998895782731537
20
-1.0658141036401503e-13
30
0
11
-119.99889578273152
21
-7.8194859015430279e-14
31
0
0
LINE
5
172
100
AcDbEntity
8
0
100
AcDbLine
10
-124.74889577806056
20
-0.19568801227663812
30
0
11
-124.74889577771053
21
-79.80431198775878
31
0
0
SPLINE
5
173
100
AcDbEntity
8
0
100
AcDbSpline
70
4
71
5
72
14
73
8
74
0
42
0.000000001
43
0.0000000001
44
0.0000000001
40
-0.19845996965191265
40
-0.19845996965191265
40
-0.19845996965191265
40
-0.19845996965191265
40
-0.19845996965191265
40
-0.19845996965191265
40
-0.13333333333333333
40
-0.066666666666666666
40
0
40
0
40
0
40
0
40
0
40
0
41
1
41
1
41
1
41
1
41
1
41
1
41
1
41
1
10
-124.74889577771053
20
-79.80431198775878
30
0
10
-124.44359680418913
20
-79.835265670949909
30
0
10
-123.82345206207512
20
-79.891738434741498
30
0
10
-122.88279338425575
20
-79.958138025966434
30
0
10
-121.93249690662407
20
-79.996998982195578
30
0
10
-120.97301913959383
20
-80.008988500572343
30
0
10
-120.3242892917159
20
-80.005002961521598
30
0
10
-119.99889578273154
20
-79.999999999999872
30
0
0
CIRCLE
5
174
100
AcDbEntity
8
0
100
AcDbCircle
10
-118.44712851714178
20
-3.7475272429858109
30
0
40
3.25
210
0
220
0
230
1
0
CIRCLE
5
175
100
AcDbEntity
8
0
100
AcDbCircle
10
-21.550663048321283
20
-3.7475272429858553
30
0
40
3.25
210
0
220
0
230
1
0
SPLINE
5
176
100
AcDbEntity
8
0
100
AcDbSpline
70
4
71
5
72
14
73
8
74
0
42
0.000000001
43
0.0000000001
44
0.0000000001
40
0
40
0
40
0
40
0
40
0
40
0
40
0.066666666666666666
40
0.13333333333333333
40
0.19845996966683893
40
0.19845996966683893
40
0.19845996966683893
40
0.19845996966683893
40
0.19845996966683893
40
0.19845996966683893
41
1
41
1
41
1
41
1
41
1
41
1
41
1
41
1
10
-19.998895782731537
20
-79.999999999999886
30
0
10
-19.673502273747168
20
-80.005002961521626
30
0
10
-19.024772425869244
20
-80.008988500572386
30
0
10
-18.065294658766852
20
-79.996998982194697
30
0
10
-17.114998181064379
20
-79.958138025960622
30
0
10
-16.174339503175702
20
-79.891738434726534
30
0
10
-15.554194760993012
20
-79.835265670924329
30
0
10
-15.248895787402699
20
-79.804311987723352
30
0
0
SPLINE
5
177
100
AcDbEntity
8
0
100
AcDbSpline
70
4
71
5
72
14
73
8
74
0
42
0.000000001
43
0.0000000001
44
0.0000000001
40
0
40
0
40
0
40
0
40
0
40
0
40
0.066666666666666666
40
0.13333333333333333
40
0.19845996966684762
40
0.19845996966684762
40
0.19845996966684762
40
0.19845996966684762
40
0.19845996966684762
40
0.19845996966684762
41
1
41
1
41
1
41
1
41
1
41
1
41
1
41
1
10
-119.99889578273152
20
-7.8194859015430279e-14
30
0
10
-120.32428929171587
20
0.0050029615216581032
30
0
10
-120.97301913959382
20
0.0089885005724109415
30
0
10
-121.93249690669624
20
-0.0030010178052793293
30
0
10
-122.88279338439877
20
-0.041861974039360567
30
0
10
-123.82345206228747
20
-0.10826156527344748
30
0
10
-124.44359680447019
20
-0.16473432907563965
30
0
10
-124.74889577806056
20
-0.19568801227663812
30
0
0
LWPOLYLINE
5
178
100
AcDbEntity
8
0
100
AcDbPolyline
90
4
70
1
43
0.0
10
-22.787940706632916
20
-6.6025985804998122
10
-22.787940706632916
20
-68.702598580499824
10
-117.88794070663293
20
-68.702598580499824
10
-117.88794070663293
20
-6.6025985804998122
0
LWPOLYLINE
5
179
100
AcDbEntity
8
0
100
AcDbPolyline
90
4
70
1
43
0.0
10
-117.38794070663292
20
-7.1025985804998122
10
-23.287940706632916
20
-7.1025985804998104
10
-23.287940706632924
20
-68.202598580499824
10
-117.38794070663292
20
-68.202598580499824
0
LINE
5
180
100
AcDbEntity
8
0
100
AcDbLine
10
-19.299675478503747
20
-7.010155667606238
30
0
11
-18.870216131480188
21
-7.0101052390572267
31
0
0
LWPOLYLINE
5
181
100
AcDbEntity
8
0
100
AcDbPolyline
90
4
70
1
43
0.0
10
-24.287940721534078
20
-8.1025985954009716
10
-24.287940721534085
20
-67.202598565598663
10
-116.38794069173176
20
-67.202598565598663
10
-116.38794069173176
20
-8.1025985954009734
0
LINE
5
182
100
AcDbEntity
8
0
100
AcDbLine
10
-110.38794070663293
20
-7.1025985804998122
30
1.1102230246251565e-14
11
-110.38794070663293
21
-68.202598580499824
31
1.1102230246251565e-14
0
LINE
5
183
100
AcDbEntity
8
0
100
AcDbLine
10
-19.299675478503747
20
-5.7307203653335268
30
0
11
-19.299675478503747
21
-7.010155667606238
31
0
0
CIRCLE
5
184
100
AcDbEntity
8
0
100
AcDbCircle
10
38.099940706632907
20
-73.763598580499817
30
1.3352279695327239e-15
40
1.1499999999999999
210
-1.2246467991473532e-16
220
0
230
-1
0
CIRCLE
5
185
100
AcDbEntity
8
0
100
AcDbCircle
10
38.099940706632907
20
-73.763598580499817
30
1.3352279695327239e-15
40
2.5
210
-1.2246467991473532e-16
220
0
230
-1
0
CIRCLE
5
186
100
AcDbEntity
8
0
100
AcDbCircle
10
101.89794070663289
20
-73.763598580499831
30
1.3766684463569112e-15
40
2.5
210
-1.2246467991473532e-16
220
0
230
-1
0
ARC
5
187
100
AcDbEntity
8
0
100
AcDbCircle
10
21.549648612601612
20
-76.249918387564946
30
1.5124480272637571e-14
40
3.0000000000000044
210
-3.6021698456672467e-16
220
-9.6550015876926103e-17
230
-1
100
AcDbArc
50
-22.101823844425773
51
153.27103916088944
0
CIRCLE
5
188
100
AcDbEntity
8
0
100
AcDbCircle
10
40.687940706632901
20
-65.97259858049982
30
1.6521665611520582e-15
40
0.50799999999999956
210
-1.2246467991473532e-16
220
0
230
-1
0
CIRCLE
5
189
100
AcDbEntity
8
0
100
AcDbCircle
10
38.099940706632907
20
-73.763598580499817
30
1.3352279695327239e-15
40
1.0999999999999999
210
-1.2246467991473532e-16
220
0
230
-1
0
LINE
5
190
100
AcDbEntity
8
0
100
AcDbLine
10
-121.12757543447096
20
-7.0101052390553527
30
1.2212453270876722e-14
11
-120.69811608695144
21
-7.0101556676042112
31
1.2212453270876722e-14
0
LINE
5
191
100
AcDbEntity
8
0
100
AcDbLine
10
-120.69811608695144
20
-7.0101556676042112
30
1.2212453270876722e-14
11
-120.69811608695183
21
-5.7307203653419503
31
1.2212453270876722e-14
0
CIRCLE
5
192
100
AcDbEntity
8
0
100
AcDbCircle
10
101.89794070663289
20
-73.763598580499831
30
1.3766684463569112e-15
40
1.1499999999999999
210
-1.2246467991473532e-16
220
0
230
-1
0
CIRCLE
5
193
100
AcDbEntity
8
0
100
AcDbCircle
10
101.89794070663289
20
-73.763598580499831
30
1.3766684463569112e-15
40
1.1000000000000032
210
-1.2246467991473532e-16
220
0
230
-1
0
LINE
5
194
100
AcDbEntity
8
0
100
AcDbLine
10
-88.998895782731552
20
-77.000000000000227
30
0
11
-88.99889540780741
21
-80.000000000000213
31
0
0
LINE
5
195
100
AcDbEntity
8
0
100
AcDbLine
10
-90.498895782731552
20
-77.000000000000242
30
0
11
-88.998895782731552
21
-77.000000000000227
31
0
0
LINE
5
196
100
AcDbEntity
8
0
100
AcDbLine
10
-90.498895407807396
20
-80.000000171650001
30
0
11
-90.498895782731552
21
-77.000000000000242
31
0
0
LWPOLYLINE
5
197
100
AcDbEntity
8
0
100
AcDbPolyline
90
4
70
1
43
0.0
10
-88.998895407807424
20
-4.4547699392479998e-14
10
-90.49889540780741
20
1.7165007581976255e-07
10
-90.49889540780741
20
-3.0000000000000431
10
-88.99889578273158
20
-3.0000000000000426
0
LINE
5
198
100
AcDbEntity
8
0
100
AcDbLine
10
-49.498896157655722
20
-80.000000171650015
30
0
11
-49.498895782731566
21
-77.000000000000256
31
0
0
LINE
5
199
100
AcDbEntity
8
0
100
AcDbLine
10
-49.498895782731566
20
-77.000000000000256
30
0
11
-50.998895782731566
21
-77.000000000000242
31
0
0
LINE
5
200
100
AcDbEntity
8
0
100
AcDbLine
10
-50.998895782731566
20
-77.000000000000242
30
0
11
-50.998896157655707
21
-80.000000000000227
31
0
0
LINE
5
201
100
AcDbEntity
8
0
100
AcDbLine
10
-49.498896157655636
20
-3.0000000000000604
30
0
11
-50.998895782731481
21
-3.0000000000000604
31
0
0
LINE
5
202
100
AcDbEntity
8
0
100
AcDbLine
10
-49.498896157655636
20
1.7165005417041357e-07
30
0
11
-49.498896157655636
21
-3.0000000000000604
31
0
0
LINE
5
203
100
AcDbEntity
8
0
100
AcDbLine
10
-50.998895782731481
20
-3.0000000000000604
30
0
11
-50.998896157655622
21
-6.2172489379008766e-14
31
0
0
ENDSEC
0
SECTION
2
OBJECTS
0
DICTIONARY
5
C
100
AcDbDictionary
3
ACAD_GROUP
350
D
3
ACAD_MLINESTYLE
350
17
0
DICTIONARY
5
D
100
AcDbDictionary
0
DICTIONARY
5
1A
330
C
100
AcDbDictionary
0
DICTIONARY
5
17
100
AcDbDictionary
0
ENDSEC
0
EOF
